<svg xmlns="http://www.w3.org/2000/svg" viewBox="0 0 24 24">
	<path class="icon-path" d="M0.3,4.7c-0.9-1.5,0.2-3.5,2-3.5h19.4c1.8,0,2.9,1.9,2,3.5L14,20.9c-0.9,1.5-3,1.5-3.9,0C10,20.9,0.3,4.7,0.3,4.7z"/>
</svg>
