<svg xmlns="http://www.w3.org/2000/svg" viewBox="0 0 50 50">
<path class="icon-path" d="M25.5,11.2h-4.1l-4.3,4.8h4.3L25.5,11.2z M20.7,2.7l-4.3,0.8v4.5l4.3,0.8V2.7z M27.2,16.7h10.7
	c0,0-0.7-5.5,6.5-7V1.9H22.1v7.8h5.1L27.2,16.7z M47,37.8l-7.1-20.1l-14.1,0l-7.6,19.8l0,0c-1,3-0.5,6.3,1.3,8.9
	c1.5,2.2,4.1,3.5,6.8,3.6h12.6c2.7,0,5.1-1.3,6.7-3.5C47.4,44,47.9,40.8,47,37.8z M27,19.5l11.6,0l4.6,13.1
	c-11.1,1.2-18.1-1.3-20.4-2.3L27,19.5z M13.3,3.4c0-0.6-0.5-1.1-1.1-1.1c-0.6,0-1.1,0.5-1.1,1.1s0.5,1.1,1.1,1.1l0,0
	C12.8,4.5,13.3,4,13.3,3.4C13.3,3.4,13.3,3.4,13.3,3.4z M8,5.2c-0.6,0-1.1,0.5-1.1,1.1C6.8,7,7.3,7.5,8,7.5c0.6,0,1.1-0.5,1.1-1.1
	C9.1,5.7,8.6,5.2,8,5.2L8,5.2z M8.1,0c-0.6,0-1,0.5-1,1s0.5,1,1,1c0.6,0,1-0.5,1-1c0,0,0,0,0,0C9.1,0.5,8.7,0,8.1,0z M3.7,6.3
	c-0.6,0-1.1,0.5-1.1,1.1s0.5,1.1,1.1,1.1s1.1-0.5,1.1-1.1l0,0C4.8,6.8,4.3,6.3,3.7,6.3z M13.2,8.6c0.7,0,1.2,0.5,1.2,1.2
	c0,0.7-0.5,1.2-1.2,1.2c-0.7,0-1.2-0.5-1.2-1.2C12,9.1,12.5,8.6,13.2,8.6z"/>
</svg>
