<svg xmlns="http://www.w3.org/2000/svg" viewBox="0 0 24 24">
<path class="icon-path" d="M8,22.5c0.3,0,0.7,0,1-0.1c0.3,0,0.6-0.1,0.8-0.3c0.2-0.1,0.4-0.4,0.6-0.6c0.1-0.3,0.2-0.6,0.2-1.1v-9.9
	c0-0.5-0.1-0.8-0.2-1.1S10,9,9.8,8.8C9.5,8.7,9.3,8.6,9,8.5C8.7,8.5,8.3,8.4,8,8.4H7.9V7.1h5.6v13.1c0,0.5,0.1,0.9,0.2,1.2
	c0.1,0.3,0.3,0.5,0.5,0.7c0.2,0.2,0.5,0.3,0.8,0.3c0.3,0.1,0.6,0.1,1,0.1h0.4v1.3H7.6v-1.3H8z M10.1,2.1c0-0.4,0-0.7,0.1-0.9
	c0.1-0.2,0.2-0.4,0.4-0.6c0.2-0.2,0.3-0.3,0.6-0.3c0.2-0.1,0.4-0.1,0.7-0.1c0.2,0,0.5,0,0.7,0.1c0.2,0.1,0.4,0.2,0.6,0.3
	c0.2,0.2,0.3,0.3,0.4,0.6c0.1,0.2,0.1,0.5,0.1,0.9c0,0.4,0,0.7-0.1,0.9c-0.1,0.2-0.2,0.4-0.4,0.6c-0.2,0.2-0.3,0.3-0.6,0.3
	C12.3,4,12.1,4,11.9,4c-0.3,0-0.5,0-0.7-0.1c-0.2-0.1-0.4-0.2-0.6-0.3c-0.2-0.2-0.3-0.3-0.4-0.6C10.1,2.8,10.1,2.5,10.1,2.1z"/>
</svg>
