<svg xmlns="http://www.w3.org/2000/svg" viewBox="0 0 50 50">
<path class="icon-path" d="M46,26c0-1-0.4-2-1-2.8c-0.3-0.4-0.7-0.7-1.1-0.8c-0.7-0.2-1.4-0.3-2.1-0.2c-7.3,0.6-15,6.6-18.2,13
	c-5,10.1,6.4,19.3,15.2,11.9C44.4,42.1,46.5,33.2,46,26z M41.6,26.1c0,0-12.6,15.2-14.6,21.2C27,47.4,24.4,35.9,41.6,26.1z M8.1,0.4
	C7.3,0.2,6.5,0.3,5.7,0.6C5.3,0.8,5,1,4.8,1.3c-0.3,0.5-0.5,1-0.6,1.6c-1.1,5.9,2,13.1,6.4,17c6.9,6.1,16.5-0.9,12.5-9.4
	C20.5,5,13.9,1.5,8.1,0.4z M7.3,3.9c0,0,9.3,13.1,13.6,15.9C20.9,19.8,11.4,19.4,7.3,3.9L7.3,3.9z"/>
</svg>
