<svg xmlns="http://www.w3.org/2000/svg" viewBox="0 0 50 50">
<path class="icon-path" d="M8.5,0.9C7.7,0.7,6.9,0.8,6.1,1.1C5.8,1.3,5.5,1.5,5.2,1.8c-0.3,0.5-0.5,1-0.6,1.6c-1.1,5.8,2,12.8,6.3,16.6
	c6.7,5.9,16.1-0.9,12.2-9.2C20.6,5.4,14.1,2,8.5,0.9z M7.7,4.3c0,0,9.1,12.8,13.3,15.6C21,19.9,11.7,19.5,7.7,4.3L7.7,4.3z
	 M45.5,25.9c0-1-0.4-2-1-2.8c-0.3-0.4-0.7-0.6-1.1-0.8c-0.7-0.2-1.3-0.3-2-0.2c-7.2,0.6-14.7,6.5-17.8,12.8
	c-4.9,9.9,6.2,18.9,14.8,11.6C44,41.8,46,33,45.5,25.9z M41.2,26.1c0,0-12.3,14.9-14.3,20.8C26.9,46.9,24.5,35.7,41.2,26.1z"/>
</svg>
