<svg xmlns="http://www.w3.org/2000/svg" viewBox="0 0 50 50">
<path class="icon-path" d="M6.3,12.5V50h37.5V12.5H6.3z M16.7,41.7c0,1.2-0.9,2.1-2.1,2.1s-2.1-0.9-2.1-2.1V20.8
	c0-1.2,0.9-2.1,2.1-2.1s2.1,0.9,2.1,2.1V41.7z M27.1,41.7c0,1.2-0.9,2.1-2.1,2.1s-2.1-0.9-2.1-2.1V20.8c0-1.2,0.9-2.1,2.1-2.1
	s2.1,0.9,2.1,2.1V41.7z M37.5,41.7c0,1.2-0.9,2.1-2.1,2.1s-2.1-0.9-2.1-2.1V20.8c0-1.2,0.9-2.1,2.1-2.1s2.1,0.9,2.1,2.1V41.7z
	 M45.8,4.2v4.2H4.2V4.2h11.9c1.9,0,3.4-2.3,3.4-4.2h11.1c0,1.9,1.5,4.2,3.4,4.2H45.8z"/>
</svg>
