{
	"info": {
		"name": "HydroApi",
		"_postman_id": "ca02176a-1d72-4858-9552-23aa50b56373",
		"description": "",
		"schema": "https://schema.getpostman.com/json/collection/v2.1.0/collection.json"
	},
	"item": [
		{
			"name": "clients",
			"description": "",
			"item": [
				{
					"name": "GetClients",
					"request": {
						"auth": {
							"type": "basic",
							"basic": [
								{
									"key": "password",
									"value": "password",
									"type": "string"
								},
								{
									"key": "username",
									"value": "mail@mail.com",
									"type": "string"
								}
							]
						},
						"method": "GET",
						"header": [
							{
								"key": "Content-Type",
								"value": "application/json"
							}
						],
						"body": {
							"mode": "raw",
							"raw": "{\n  \"login\" : \"janek2\",\n  \"password\" : \"1234\",\n  \"repeatPassword\" : \"1234\"\n}"
						},
						"url": {
							"raw": "http://localhost:8080/clients/all",
							"protocol": "http",
							"host": [
								"localhost"
							],
							"port": "8080",
							"path": [
								"clients",
								"all"
							]
						},
						"description": "getUsersRegistered"
					},
					"response": []
				},
				{
					"name": "Register Get sample",
					"request": {
						"auth": {
							"type": "basic",
							"basic": [
								{
									"key": "password",
									"value": "password",
									"type": "string"
								},
								{
									"key": "username",
									"value": "mail@mail.com",
									"type": "string"
								}
							]
						},
						"method": "GET",
						"header": [
							{
								"key": "Content-Type",
								"value": "application/json"
							}
						],
						"body": {},
						"url": {
							"raw": "http://localhost:8080/clients/register-sample",
							"protocol": "http",
							"host": [
								"localhost"
							],
							"port": "8080",
							"path": [
								"clients",
								"register-sample"
							]
						},
						"description": "getUsersRegistered"
					},
					"response": []
				},
				{
					"name": "Register",
					"request": {
						"auth": {
							"type": "basic",
							"basic": [
								{
									"key": "password",
									"value": "password",
									"type": "string"
								},
								{
									"key": "username",
									"value": "mail@mail.com",
									"type": "string"
								}
							]
						},
						"method": "POST",
						"header": [
							{
								"key": "Content-Type",
								"value": "application/json"
							}
						],
						"body": {
							"mode": "raw",
							"raw": "{\n  \"login\" : \"janek2\",\n  \"password\" : \"1234\",\n  \"repeatPassword\" : \"1234\"\n}"
						},
						"url": {
							"raw": "http://localhost:8080/clients/register",
							"protocol": "http",
							"host": [
								"localhost"
							],
							"port": "8080",
							"path": [
								"clients",
								"register"
							]
						},
						"description": "getUsersRegistered"
					},
					"response": []
				},
				{
					"name": "Login",
					"request": {
						"auth": {
							"type": "basic",
							"basic": [
								{
									"key": "password",
									"value": "password",
									"type": "string"
								},
								{
									"key": "username",
									"value": "mail@mail.com",
									"type": "string"
								}
							]
						},
						"method": "POST",
						"header": [
							{
								"key": "Content-Type",
								"value": "application/json"
							}
						],
						"body": {
							"mode": "raw",
							"raw": "{\n  \"login\" : \"janek2\"\n}"
						},
						"url": {
							"raw": "http://localhost:8080/clients/login",
							"protocol": "http",
							"host": [
								"localhost"
							],
							"port": "8080",
							"path": [
								"clients",
								"login"
							]
						},
						"description": "getUsersRegistered"
					},
					"response": []
				}
			],
			"event": [
				{
					"listen": "prerequest",
					"script": {
						"id": "d7e2ff42-3c23-410f-94b2-715cbee3fd99",
						"type": "text/javascript",
						"exec": [
							""
						]
					}
				},
				{
					"listen": "test",
					"script": {
						"id": "79a081c1-19eb-416d-ae47-68b165d407e3",
						"type": "text/javascript",
						"exec": [
							""
						]
					}
				}
			]
		},
		{
			"name": "systems",
			"description": "",
			"item": [
				{
					"name": "getsystemaddsample",
					"request": {
						"method": "GET",
						"header": [
							{
								"key": "Content-Type",
								"value": "application/json"
							}
						],
						"body": {
							"mode": "raw",
							"raw": "{\n  \"login\": \"string\"\n}"
						},
						"url": {
							"raw": "http://localhost:8080/systems/system",
							"protocol": "http",
							"host": [
								"localhost"
							],
							"port": "8080",
							"path": [
								"systems",
								"system"
							]
						},
						"description": ""
					},
					"response": []
				},
				{
					"name": "getsystemaddsample Copy",
					"request": {
						"method": "GET",
						"header": [
							{
								"key": "Content-Type",
								"value": "application/json"
							}
						],
						"body": {
							"mode": "raw",
							"raw": "{\n  \"login\": \"string\"\n}"
						},
						"url": {
							"raw": "http://localhost:8080/systems/system",
							"protocol": "http",
							"host": [
								"localhost"
							],
							"port": "8080",
							"path": [
								"systems",
								"system"
							]
						},
						"description": ""
					},
					"response": []
				},
				{
					"name": "add system",
					"request": {
						"method": "POST",
						"header": [
							{
								"key": "Content-Type",
								"value": "application/json"
							}
						],
						"body": {
							"mode": "raw",
							"raw": "{\n  \"name\": \"mysystem\",\n  \"ownerId\":1\n}"
						},
						"url": {
							"raw": "http://localhost:8080/systems/system/my?myId=1",
							"protocol": "http",
							"host": [
								"localhost"
							],
							"port": "8080",
							"path": [
								"systems",
								"system",
								"my"
							],
							"query": [
								{
									"key": "myId",
									"value": "1",
									"equals": true
								}
							]
						},
						"description": ""
					},
					"response": []
				}
			]
		},
		{
			"name": "plants",
			"description": "",
			"item": [
				{
					"name": "getPlants",
					"request": {
						"method": "GET",
						"header": [
							{
								"key": "Content-Type",
								"value": "application/json"
							}
						],
						"body": {
							"mode": "raw",
							"raw": "{\n\t\n}"
						},
						"url": {
							"raw": "http://localhost:8080/plants/all",
							"protocol": "http",
							"host": [
								"localhost"
							],
							"port": "8080",
							"path": [
								"plants",
								"all"
							]
						},
						"description": ""
					},
					"response": []
				},
				{
					"name": "addPlant",
					"request": {
						"method": "POST",
						"header": [
							{
								"key": "Content-Type",
								"value": "application/json"
							}
						],
						"body": {
							"mode": "raw",
							"raw": "{\n    \"name\": \"plant name 3\",\n    \"plantType\": \"VEGETABLE\",\n    \"growTime\": 13,\n    \"growDifficulty\": \"ADVANCED\"\n}"
						},
						"url": {
							"raw": "http://localhost:8080/plants/add",
							"protocol": "http",
							"host": [
								"localhost"
							],
							"port": "8080",
							"path": [
								"plants",
								"add"
							]
						},
						"description": ""
					},
					"response": []
				},
				{
					"name": "get plant 1",
					"request": {
						"method": "GET",
						"header": [
							{
								"key": "Content-Type",
								"value": "application/json"
							}
						],
						"body": {
							"mode": "raw",
							"raw": "{\n\t\n}"
						},
						"url": {
							"raw": "http://localhost:8080/plants/plant/1",
							"protocol": "http",
							"host": [
								"localhost"
							],
							"port": "8080",
							"path": [
								"plants",
								"plant",
								"1"
							]
						},
						"description": ""
					},
					"response": []
				},
				{
					"name": "getPlants sample",
					"request": {
						"method": "GET",
						"header": [
							{
								"key": "Content-Type",
								"value": "application/json"
							}
						],
						"body": {
							"mode": "raw",
							"raw": "{\n\t\n}"
						},
						"url": {
							"raw": "http://localhost:8080/plants/sample",
							"protocol": "http",
							"host": [
								"localhost"
							],
							"port": "8080",
							"path": [
								"plants",
								"sample"
							]
						},
						"description": ""
					},
					"response": []
				},
				{
					"name": "uploadimage",
					"request": {
						"method": "POST",
						"header": [
							{
								"key": "Content-Type",
								"value": "application/json",
								"disabled": true
							}
						],
						"body": {
							"mode": "formdata",
							"formdata": [
								{
									"key": "file",
									"description": "",
									"type": "file"
								}
							]
						},
						"url": {
							"raw": "http://localhost:8080/plants/plant/1/uploadImage",
							"protocol": "http",
							"host": [
								"localhost"
							],
							"port": "8080",
							"path": [
								"plants",
								"plant",
								"1",
								"uploadImage"
							]
						},
						"description": ""
					},
					"response": []
				},
				{
					"name": "getimage",
					"request": {
						"method": "GET",
						"header": [
							{
								"key": "Content-Type",
								"value": "application/json"
							}
						],
						"body": {
							"mode": "raw",
							"raw": "{\n\t\n}"
						},
						"url": {
							"raw": "http://localhost:8080/plants/plant/1/imageFull",
							"protocol": "http",
							"host": [
								"localhost"
							],
							"port": "8080",
							"path": [
								"plants",
								"plant",
								"1",
								"imageFull"
							]
						},
						"description": ""
					},
					"response": []
				},
				{
					"name": "getimageMedium",
					"request": {
						"method": "GET",
						"header": [
							{
								"key": "Content-Type",
								"value": "application/json"
							}
						],
						"body": {
							"mode": "raw",
							"raw": "{\n\t\n}"
						},
						"url": {
							"raw": "http://localhost:8080/plants/plant/1/imageMedium",
							"protocol": "http",
							"host": [
								"localhost"
							],
							"port": "8080",
							"path": [
								"plants",
								"plant",
								"1",
								"imageMedium"
							]
						},
						"description": ""
					},
					"response": []
				},
				{
					"name": "getimageSmall",
					"request": {
						"method": "GET",
						"header": [
							{
								"key": "Content-Type",
								"value": "application/json"
							}
						],
						"body": {
							"mode": "raw",
							"raw": "{\n\t\n}"
						},
						"url": {
							"raw": "http://localhost:8080/plants/plant/1/imageSmall",
							"protocol": "http",
							"host": [
								"localhost"
							],
							"port": "8080",
							"path": [
								"plants",
								"plant",
								"1",
								"imageSmall"
							]
						},
						"description": ""
					},
					"response": []
				}
			]
		},
		{
			"name": "api-docs",
			"request": {
				"method": "GET",
				"header": [],
				"body": {},
				"url": {
					"raw": "http://localhost:8080/clients/v2/api-docs",
					"protocol": "http",
					"host": [
						"localhost"
					],
					"port": "8080",
					"path": [
						"clients",
						"v2",
						"api-docs"
					]
				},
				"description": ""
			},
			"response": []
		},
		{
			"name": "api-docs ui",
			"request": {
				"method": "GET",
				"header": [],
				"body": {},
				"url": {
					"raw": "http://localhost:8080/clients/swagger-ui.html",
					"protocol": "http",
					"host": [
						"localhost"
					],
					"port": "8080",
					"path": [
						"clients",
						"swagger-ui.html"
					]
				},
				"description": ""
			},
			"response": []
		}
	],
	"event": [
		{
			"listen": "prerequest",
			"script": {
				"id": "0da14723-d92c-471a-971c-133607e824ce",
				"type": "text/javascript",
				"exec": [
					""
				]
			}
		},
		{
			"listen": "test",
			"script": {
				"id": "edf89e2d-d3ba-4bc5-b333-5e6084e16fed",
				"type": "text/javascript",
				"exec": [
					""
				]
			}
		}
	]
}